\relax 
\providecommand\hyper@newdestlabel[2]{}
\providecommand*{\memsetcounter}[2]{}
\@nameuse{bbl@beforestart}
\catcode `"\active 
\catcode `-\active 
\providecommand\HyperFirstAtBeginDocument{\AtBeginDocument}
\HyperFirstAtBeginDocument{\ifx\hyper@anchor\@undefined
\global\let\oldcontentsline\contentsline
\gdef\contentsline#1#2#3#4{\oldcontentsline{#1}{#2}{#3}}
\global\let\oldnewlabel\newlabel
\gdef\newlabel#1#2{\newlabelxx{#1}#2}
\gdef\newlabelxx#1#2#3#4#5#6{\oldnewlabel{#1}{{#2}{#3}}}
\AtEndDocument{\ifx\hyper@anchor\@undefined
\let\contentsline\oldcontentsline
\let\newlabel\oldnewlabel
\fi}
\fi}
\global\let\hyper@last\relax 
\gdef\HyperFirstAtBeginDocument#1{#1}
\providecommand\HyField@AuxAddToFields[1]{}
\providecommand\HyField@AuxAddToCoFields[2]{}
\@writefile{toc}{\changetocdepth  {3}}
\babel@aux{czech}{}
\babel@aux{czech}{}
\babel@aux{english}{}
\babel@aux{czech}{}
\babel@aux{english}{}
\babel@aux{czech}{}
\citation{cryptography}
\@writefile{lof}{\addvspace {10pt}}
\@writefile{lot}{\addvspace {10pt}}
\@writefile{toc}{\contentsline {chapter}{{\' U}vod}{1}{chapter*.8}\protected@file@percent }
\citation{Whatisk8s}
\citation{Mikrosluzba}
\@writefile{lof}{\addvspace {10pt}}
\@writefile{lot}{\addvspace {10pt}}
\@writefile{toc}{\contentsline {chapter}{\chapternumberline {1}Kubernetes}{3}{chapter.1}\protected@file@percent }
\newlabel{chap:kubernetes}{{\M@TitleReference {1}{Kubernetes}}{3}{Kubernetes}{chapter.1}{}}
\citation{Whatisk8s}
\citation{Components}
\citation{Components}
\@writefile{lof}{\contentsline {figure}{\numberline {1.1}{\ignorespaces Komponenty Kubernetes}}{4}{figure.1.1}\protected@file@percent }
\newlabel{fig:architecture}{{\M@TitleReference {1.1}{Komponenty Kubernetes}}{4}{Komponenty Kubernetes}{figure.1.1}{}}
\citation{Podpic}
\citation{Podpic}
\@writefile{toc}{\contentsline {section}{\numberline {1.1}Pod}{5}{section.1.1}\protected@file@percent }
\@writefile{lof}{\contentsline {figure}{\numberline {1.2}{\ignorespaces Kubernetes Pod}}{5}{figure.1.2}\protected@file@percent }
\newlabel{fig:pod}{{\M@TitleReference {1.2}{Kubernetes Pod}}{5}{Kubernetes Pod}{figure.1.2}{}}
\citation{Whatisk8s}
\@writefile{toc}{\contentsline {section}{\numberline {1.2}Control Plane}{6}{section.1.2}\protected@file@percent }
\citation{userspaceproxy}
\citation{userspaceproxy}
\citation{iptablesproxy}
\citation{iptablesproxy}
\@writefile{toc}{\contentsline {section}{\numberline {1.3}Komponenty nodu}{7}{section.1.3}\protected@file@percent }
\@writefile{toc}{\contentsline {subsection}{\numberline {1.3.1}Kubelet}{7}{subsection.1.3.1}\protected@file@percent }
\@writefile{toc}{\contentsline {subsection}{\numberline {1.3.2}Kube-Proxy}{7}{subsection.1.3.2}\protected@file@percent }
\@writefile{lof}{\contentsline {figure}{\numberline {1.3}{\ignorespaces Kubernetes proxy v user space módu}}{8}{figure.1.3}\protected@file@percent }
\newlabel{fig:usmp}{{\M@TitleReference {1.3}{Kubernetes proxy v user space módu}}{8}{Kubernetes proxy v user space módu}{figure.1.3}{}}
\@writefile{lof}{\contentsline {figure}{\numberline {1.4}{\ignorespaces Kubernetes proxy fungující s iptables}}{8}{figure.1.4}\protected@file@percent }
\newlabel{fig:iptpm}{{\M@TitleReference {1.4}{Kubernetes proxy fungující s iptables}}{8}{Kubernetes proxy fungující s iptables}{figure.1.4}{}}
\@writefile{toc}{\contentsline {section}{\numberline {1.4}Mikroslužby}{8}{section.1.4}\protected@file@percent }
\citation{Mikrosluzba}
\citation{Ansible}
\citation{ualsahansible}
\citation{Ansible}
\citation{Ansibleconcepts}
\@writefile{lof}{\addvspace {10pt}}
\@writefile{lot}{\addvspace {10pt}}
\@writefile{toc}{\contentsline {chapter}{\chapternumberline {2}Ansible}{11}{chapter.2}\protected@file@percent }
\citation{Ansibleconcepts}
\citation{Ansibleconcepts}
\citation{Ansibleinventory}
\citation{Ansibleconcepts}
\@writefile{toc}{\contentsline {section}{\numberline {2.1}Control node}{12}{section.2.1}\protected@file@percent }
\@writefile{toc}{\contentsline {section}{\numberline {2.2}Managed node}{12}{section.2.2}\protected@file@percent }
\@writefile{toc}{\contentsline {section}{\numberline {2.3}Iventory}{12}{section.2.3}\protected@file@percent }
\@writefile{toc}{\contentsline {section}{\numberline {2.4}Modules}{12}{section.2.4}\protected@file@percent }
\citation{Ansibleconcepts}
\citation{Ansibleplaybooks}
\@writefile{toc}{\contentsline {section}{\numberline {2.5}Tasks}{13}{section.2.5}\protected@file@percent }
\@writefile{toc}{\contentsline {section}{\numberline {2.6}Playbooks}{13}{section.2.6}\protected@file@percent }
\@writefile{lof}{\contentsline {figure}{\numberline {2.1}{\ignorespaces Ansible potřeby}}{14}{figure.2.1}\protected@file@percent }
\newlabel{fig:potreby}{{\M@TitleReference {2.1}{Ansible potřeby}}{14}{Ansible potřeby}{figure.2.1}{}}
\citation{Dockeroverview}
\citation{Dockeroverview}
\citation{ualsahdocker}
\@writefile{lof}{\addvspace {10pt}}
\@writefile{lot}{\addvspace {10pt}}
\@writefile{toc}{\contentsline {chapter}{\chapternumberline {3}Docker}{15}{chapter.3}\protected@file@percent }
\@writefile{toc}{\contentsline {section}{\numberline {3.1}Kontejner vs. virtuální počítač}{15}{section.3.1}\protected@file@percent }
\citation{Containervm}
\citation{Containervm}
\citation{Whatiscontainer}
\citation{Whatiscontainer}
\citation{ualsahdocker}
\@writefile{lof}{\contentsline {figure}{\numberline {3.1}{\ignorespaces Docker VM}}{16}{figure.3.1}\protected@file@percent }
\newlabel{fig:docker-vm}{{\M@TitleReference {3.1}{Docker VM}}{16}{Docker VM}{figure.3.1}{}}
\citation{Dockerarchitecture}
\citation{Dockerarchitecture}
\citation{Cgroups}
\@writefile{lof}{\contentsline {figure}{\numberline {3.2}{\ignorespaces Docker kontejnery}}{17}{figure.3.2}\protected@file@percent }
\newlabel{fig:docker-docker}{{\M@TitleReference {3.2}{Docker kontejnery}}{17}{Docker kontejnery}{figure.3.2}{}}
\@writefile{toc}{\contentsline {section}{\numberline {3.2}Stavební kameny Dockeru}{17}{section.3.2}\protected@file@percent }
\@writefile{toc}{\contentsline {subsection}{\numberline {3.2.1}Jmenné prostory}{17}{subsection.3.2.1}\protected@file@percent }
\citation{Cgroups}
\citation{Dockeroverview}
\@writefile{lof}{\contentsline {figure}{\numberline {3.3}{\ignorespaces Docker architektura}}{18}{figure.3.3}\protected@file@percent }
\newlabel{fig:docker-architecture}{{\M@TitleReference {3.3}{Docker architektura}}{18}{Docker architektura}{figure.3.3}{}}
\@writefile{lot}{\contentsline {table}{\numberline {3.1}{\ignorespaces Linuxové jmenné prostory}}{18}{table.3.1}\protected@file@percent }
\newlabel{tab:Jmenne prostory}{{\M@TitleReference {3.1}{Linuxové jmenné prostory}}{18}{Linuxové jmenné prostory}{table.3.1}{}}
\@writefile{toc}{\contentsline {subsection}{\numberline {3.2.2}Kontrolní skupina}{18}{subsection.3.2.2}\protected@file@percent }
\citation{Dockeroverview}
\citation{Dockeroverview}
\citation{Dockeroverview}
\citation{Containerappsys}
\@writefile{toc}{\contentsline {subsection}{\numberline {3.2.3}Docker daemon}{19}{subsection.3.2.3}\protected@file@percent }
\@writefile{toc}{\contentsline {subsection}{\numberline {3.2.4}Docker klient}{19}{subsection.3.2.4}\protected@file@percent }
\@writefile{toc}{\contentsline {subsection}{\numberline {3.2.5}Docker registr}{19}{subsection.3.2.5}\protected@file@percent }
\@writefile{toc}{\contentsline {subsection}{\numberline {3.2.6}Obrazy}{19}{subsection.3.2.6}\protected@file@percent }
\@writefile{toc}{\contentsline {section}{\numberline {3.3}Systémové kontejnery}{19}{section.3.3}\protected@file@percent }
\@writefile{lof}{\contentsline {figure}{\numberline {3.4}{\ignorespaces Docker kontejnery}}{20}{figure.3.4}\protected@file@percent }
\newlabel{fig:docker-list}{{\M@TitleReference {3.4}{Docker kontejnery}}{20}{Docker kontejnery}{figure.3.4}{}}
\@writefile{lof}{\contentsline {figure}{\numberline {3.5}{\ignorespaces LXC systémové kontejnery}}{21}{figure.3.5}\protected@file@percent }
\newlabel{fig:lxc-list}{{\M@TitleReference {3.5}{LXC systémové kontejnery}}{21}{LXC systémové kontejnery}{figure.3.5}{}}
\citation{Caesar}
\citation{Elpodpis}
\citation{NTLM}
\citation{Kerberos}
\@writefile{lof}{\addvspace {10pt}}
\@writefile{lot}{\addvspace {10pt}}
\@writefile{toc}{\contentsline {chapter}{\chapternumberline {4}Hesla}{23}{chapter.4}\protected@file@percent }
\@writefile{toc}{\contentsline {section}{\numberline {4.1}Windows}{23}{section.4.1}\protected@file@percent }
\citation{NTLMvsK}
\citation{Kerberosprotocol}
\citation{Kerberosprotocol}
\@writefile{toc}{\contentsline {subsection}{\numberline {4.1.1}Kerberos}{24}{subsection.4.1.1}\protected@file@percent }
\@writefile{toc}{\contentsline {subsection}{\numberline {4.1.2}NTLM}{24}{subsection.4.1.2}\protected@file@percent }
\citation{NTLMvsK}
\citation{NTLMprotocol}
\citation{NTLMprotocol}
\@writefile{lof}{\contentsline {figure}{\numberline {4.1}{\ignorespaces Hesla windows Kerberos}}{25}{figure.4.1}\protected@file@percent }
\newlabel{fig:windows}{{\M@TitleReference {4.1}{Hesla windows Kerberos}}{25}{Hesla windows Kerberos}{figure.4.1}{}}
\@writefile{toc}{\contentsline {section}{\numberline {4.2}Linux}{25}{section.4.2}\protected@file@percent }
\citation{burda_2019}
\@writefile{lof}{\contentsline {figure}{\numberline {4.2}{\ignorespaces Hesla windows NTLM}}{26}{figure.4.2}\protected@file@percent }
\newlabel{fig:windows}{{\M@TitleReference {4.2}{Hesla windows NTLM}}{26}{Hesla windows NTLM}{figure.4.2}{}}
\@writefile{lot}{\contentsline {table}{\numberline {4.1}{\ignorespaces Hašovací funkce podporované v linuxových systémech}}{26}{table.4.1}\protected@file@percent }
\newlabel{tab:Hash funkce}{{\M@TitleReference {4.1}{Hašovací funkce podporované v linuxových systémech}}{26}{Hašovací funkce podporované v linuxových systémech}{table.4.1}{}}
\@writefile{toc}{\contentsline {section}{\numberline {4.3}Hašovací funkce}{26}{section.4.3}\protected@file@percent }
\citation{burda_2019}
\citation{burda_2019}
\citation{burda_2019}
\@writefile{lof}{\contentsline {figure}{\numberline {4.3}{\ignorespaces Hesla hašovací funkce}}{27}{figure.4.3}\protected@file@percent }
\newlabel{fig:has}{{\M@TitleReference {4.3}{Hesla hašovací funkce}}{27}{Hesla hašovací funkce}{figure.4.3}{}}
\citation{cryptography}
\citation{md5obr}
\citation{md5obr}
\citation{cryptography}
\citation{cryptography}
\citation{cryptography}
\@writefile{toc}{\contentsline {subsection}{\numberline {4.3.1}MD5}{28}{subsection.4.3.1}\protected@file@percent }
\@writefile{toc}{\contentsline {subsection}{\numberline {4.3.2}SHA-1}{28}{subsection.4.3.2}\protected@file@percent }
\@writefile{lof}{\contentsline {figure}{\numberline {4.4}{\ignorespaces Hesla a hašovací funkce MD5}}{29}{figure.4.4}\protected@file@percent }
\newlabel{fig:md5}{{\M@TitleReference {4.4}{Hesla a hašovací funkce MD5}}{29}{Hesla a hašovací funkce MD5}{figure.4.4}{}}
\@writefile{lot}{\contentsline {table}{\numberline {4.2}{\ignorespaces SHA-X vlastnosti. \cite  {cryptography}}}{29}{table.4.2}\protected@file@percent }
\newlabel{tab:SHA-X}{{\M@TitleReference {4.2}{SHA-X vlastnosti. \cite  {cryptography}}}{29}{SHA-X vlastnosti. \cite {cryptography}}{table.4.2}{}}
\citation{Attacks}
\citation{AttackTypes}
\citation{AttackTypes}
\citation{AttackTypes}
\@writefile{toc}{\contentsline {section}{\numberline {4.4}Útoky na hesla}{30}{section.4.4}\protected@file@percent }
\citation{AttackTypes}
\citation{AttackTypes}
\@writefile{toc}{\contentsline {section}{\numberline {4.5}Ochrany prolomení a autentizační faktory}{32}{section.4.5}\protected@file@percent }
\@writefile{toc}{\contentsline {section}{\numberline {4.6}Složitost hesel}{33}{section.4.6}\protected@file@percent }
\@writefile{lot}{\contentsline {table}{\numberline {4.3}{\ignorespaces Znakové sady}}{33}{table.4.3}\protected@file@percent }
\newlabel{tab:charsets}{{\M@TitleReference {4.3}{Znakové sady}}{33}{Znakové sady}{table.4.3}{}}
\citation{salt}
\@writefile{toc}{\contentsline {section}{\numberline {4.7}Solení hesla}{34}{section.4.7}\protected@file@percent }
\@writefile{lof}{\addvspace {10pt}}
\@writefile{lot}{\addvspace {10pt}}
\@writefile{toc}{\contentsline {chapter}{\chapternumberline {5}Jiná řešení}{35}{chapter.5}\protected@file@percent }
\newlabel{chap:reseni}{{\M@TitleReference {5}{Jiná řešení}}{35}{Jiná řešení}{chapter.5}{}}
\@writefile{toc}{\contentsline {section}{\numberline {5.1}Hashtopolis}{35}{section.5.1}\protected@file@percent }
\@writefile{toc}{\contentsline {section}{\numberline {5.2}CrackLord}{36}{section.5.2}\protected@file@percent }
\@writefile{toc}{\contentsline {section}{\numberline {5.3}Distributed Hash Cracker}{36}{section.5.3}\protected@file@percent }
\@writefile{toc}{\contentsline {section}{\numberline {5.4}Gocrack}{36}{section.5.4}\protected@file@percent }
\citation{Cluster}
\citation{k8scluster}
\@writefile{lof}{\addvspace {10pt}}
\@writefile{lot}{\addvspace {10pt}}
\@writefile{toc}{\contentsline {chapter}{\chapternumberline {6}Vytvoření klastru na lámání hesel }{37}{chapter.6}\protected@file@percent }
\newlabel{chap:realizace}{{\M@TitleReference {6}{Vytvoření klastru na lámání hesel }}{37}{Vytvoření klastru na lámání hesel}{chapter.6}{}}
\@writefile{toc}{\contentsline {section}{\numberline {6.1}Realizovaný klastr}{37}{section.6.1}\protected@file@percent }
\newlabel{url:cluster}{{\M@TitleReference {6.1}{Realizovaný klastr}}{37}{Realizovaný klastr}{section.6.1}{}}
\@writefile{lof}{\contentsline {figure}{\numberline {6.1}{\ignorespaces Realizovaný klastr}}{38}{figure.6.1}\protected@file@percent }
\newlabel{fig:potreby}{{\M@TitleReference {6.1}{Realizovaný klastr}}{38}{Realizovaný klastr}{figure.6.1}{}}
\@writefile{toc}{\contentsline {section}{\numberline {6.2}Nastavení a nasazení klastru}{39}{section.6.2}\protected@file@percent }
\@writefile{toc}{\contentsline {section}{\numberline {6.3}Digital Ocean}{40}{section.6.3}\protected@file@percent }
\@writefile{lof}{\contentsline {figure}{\numberline {6.2}{\ignorespaces Realizovaný klastr na DO}}{40}{figure.6.2}\protected@file@percent }
\newlabel{fig:digital}{{\M@TitleReference {6.2}{Realizovaný klastr na DO}}{40}{Realizovaný klastr na DO}{figure.6.2}{}}
\@writefile{lof}{\addvspace {10pt}}
\@writefile{lot}{\addvspace {10pt}}
\@writefile{toc}{\contentsline {chapter}{\chapternumberline {7}Návrh aplikace na lámání hesel}{41}{chapter.7}\protected@file@percent }
\@writefile{toc}{\contentsline {section}{\numberline {7.1}Databáze}{41}{section.7.1}\protected@file@percent }
\@writefile{toc}{\contentsline {section}{\numberline {7.2}Publicservice}{42}{section.7.2}\protected@file@percent }
\@writefile{toc}{\contentsline {section}{\numberline {7.3}Privateservice}{42}{section.7.3}\protected@file@percent }
\@writefile{toc}{\contentsline {section}{\numberline {7.4}Computationunit}{43}{section.7.4}\protected@file@percent }
\citation{Hashcat}
\@writefile{toc}{\contentsline {section}{\numberline {7.5}Hashcat}{44}{section.7.5}\protected@file@percent }
\@writefile{toc}{\contentsline {subsection}{\numberline {7.5.1}OpenCL runtime}{44}{subsection.7.5.1}\protected@file@percent }
\@writefile{lof}{\contentsline {figure}{\numberline {7.1}{\ignorespaces Architektura aplikace}}{45}{figure.7.1}\protected@file@percent }
\newlabel{fig:app}{{\M@TitleReference {7.1}{Architektura aplikace}}{45}{Architektura aplikace}{figure.7.1}{}}
\@writefile{lof}{\addvspace {10pt}}
\@writefile{lot}{\addvspace {10pt}}
\@writefile{toc}{\contentsline {chapter}{\chapternumberline {8}Analýza hesel a výkonu klastru}{47}{chapter.8}\protected@file@percent }
\@writefile{toc}{\contentsline {section}{\numberline {8.1}Prolomení jednoho hesla}{47}{section.8.1}\protected@file@percent }
\@writefile{lot}{\contentsline {table}{\numberline {8.1}{\ignorespaces Hesla hašovaná MD5 haší.}}{48}{table.8.1}\protected@file@percent }
\newlabel{tab:password}{{\M@TitleReference {8.1}{Hesla hašovaná MD5 haší.}}{48}{Hesla hašovaná MD5 haší}{table.8.1}{}}
\@writefile{lot}{\contentsline {table}{\numberline {8.2}{\ignorespaces Hesla hašovaná SHA-1 haší.}}{48}{table.8.2}\protected@file@percent }
\newlabel{tab:passwdsha}{{\M@TitleReference {8.2}{Hesla hašovaná SHA-1 haší.}}{48}{Hesla hašovaná SHA-1 haší}{table.8.2}{}}
\@writefile{toc}{\contentsline {section}{\numberline {8.2}Prolomení množiny hesel podle instancí}{49}{section.8.2}\protected@file@percent }
\@writefile{lot}{\contentsline {table}{\numberline {8.3}{\ignorespaces Lámaná hesla zahašována sha1 a md5 haší v závislosti na počtu instancí Computationunit v daném módu lámání.}}{50}{table.8.3}\protected@file@percent }
\newlabel{tab:instances}{{\M@TitleReference {8.3}{Lámaná hesla zahašována sha1 a md5 haší v závislosti na počtu instancí Computationunit v daném módu lámání.}}{50}{Lámaná hesla zahašována sha1 a md5 haší v závislosti na počtu instancí Computationunit v daném módu lámání}{table.8.3}{}}
\@writefile{lof}{\contentsline {figure}{\numberline {8.1}{\ignorespaces Analýza rychlosti v závislosti na zvyšování instancí slovníkového útoku}}{50}{figure.8.1}\protected@file@percent }
\newlabel{fig:dict}{{\M@TitleReference {8.1}{Analýza rychlosti v závislosti na zvyšování instancí slovníkového útoku}}{50}{Analýza rychlosti v závislosti na zvyšování instancí slovníkového útoku}{figure.8.1}{}}
\@writefile{lof}{\contentsline {figure}{\numberline {8.2}{\ignorespaces Analýza rychlosti v závislosti na zvyšování instancí útoku maskou}}{51}{figure.8.2}\protected@file@percent }
\newlabel{fig:mask}{{\M@TitleReference {8.2}{Analýza rychlosti v závislosti na zvyšování instancí útoku maskou}}{51}{Analýza rychlosti v závislosti na zvyšování instancí útoku maskou}{figure.8.2}{}}
\@writefile{toc}{\contentsline {section}{\numberline {8.3}Prolomení hesla podle velikosti}{51}{section.8.3}\protected@file@percent }
\@writefile{lot}{\contentsline {table}{\numberline {8.4}{\ignorespaces Lámaná hesla zahašována sha1 a md5 haší}}{52}{table.8.4}\protected@file@percent }
\newlabel{tab:velikost}{{\M@TitleReference {8.4}{Lámaná hesla zahašována sha1 a md5 haší}}{52}{Lámaná hesla zahašována sha1 a md5 haší}{table.8.4}{}}
\@writefile{lof}{\contentsline {figure}{\numberline {8.3}{\ignorespaces Analýza rychlosti v závislosti na velikosti hesla}}{52}{figure.8.3}\protected@file@percent }
\newlabel{fig:velikost}{{\M@TitleReference {8.3}{Analýza rychlosti v závislosti na velikosti hesla}}{52}{Analýza rychlosti v závislosti na velikosti hesla}{figure.8.3}{}}
\bibstyle{csn690}
\bibdata{bibliographyfile}
\@writefile{lof}{\addvspace {10pt}}
\@writefile{lot}{\addvspace {10pt}}
\@writefile{toc}{\contentsline {chapter}{\chapternumberline {9}Závěr}{53}{chapter.9}\protected@file@percent }
\bibcite{cryptography}{1}
\bibcite{Whatisk8s}{2}
\bibcite{Mikrosluzba}{3}
\bibcite{Components}{4}
\bibcite{Podpic}{5}
\bibcite{userspaceproxy}{6}
\bibcite{iptablesproxy}{7}
\@writefile{toc}{\contentsline {chapter}{Literatura}{55}{chapter*.9}\protected@file@percent }
\bibcite{Ansible}{8}
\bibcite{ualsahansible}{9}
\bibcite{Ansibleconcepts}{10}
\bibcite{Ansibleinventory}{11}
\bibcite{Ansibleplaybooks}{12}
\bibcite{Dockeroverview}{13}
\bibcite{ualsahdocker}{14}
\bibcite{Containervm}{15}
\bibcite{Whatiscontainer}{16}
\bibcite{Dockerarchitecture}{17}
\bibcite{Cgroups}{18}
\bibcite{Containerappsys}{19}
\bibcite{Caesar}{20}
\bibcite{Elpodpis}{21}
\bibcite{NTLM}{22}
\bibcite{Kerberos}{23}
\bibcite{NTLMvsK}{24}
\bibcite{Kerberosprotocol}{25}
\bibcite{NTLMprotocol}{26}
\bibcite{burda_2019}{27}
\bibcite{md5obr}{28}
\bibcite{Attacks}{29}
\bibcite{AttackTypes}{30}
\bibcite{salt}{31}
\bibcite{Cluster}{32}
\bibcite{k8scluster}{33}
\bibcite{Hashcat}{34}
\@writefile{lof}{\addvspace {10pt}}
\@writefile{lot}{\addvspace {10pt}}
\@writefile{toc}{\contentsline {appendix}{\chapternumberline {A}Seznam použitých zkratek}{59}{appendix.A}\protected@file@percent }
\@writefile{lof}{\addvspace {10pt}}
\@writefile{lot}{\addvspace {10pt}}
\@writefile{toc}{\contentsline {appendix}{\chapternumberline {B}Obsah přiloženého CD}{61}{appendix.B}\protected@file@percent }
\newlabel{tab:was:used:in:doc}{{\M@TitleReference {B}{Obsah přiloženého CD}}{61}{Obsah přiloženého CD}{appendix.B}{}}
\memsetcounter{lastsheet}{78}
\memsetcounter{lastpage}{62}
